R Notebook Proyecto DevF
…
###
# Obtener datos de cantidades y promedios de venta diarias y por cajeros
###

# Cantidad y Promedio litros diarios y mensual
litros <- f416 %>%
            group_by(month,day) %>%
            summarise(litros_dia = sum(qty), promedio_litros = round(mean(qty),2)
            )

## `summarise()` regrouping output by 'month' (override with `.groups` argument)

print(litros)

## # A tibble: 92 x 4
## # Groups:   month [4]
##    month   day litros_dia promedio_litros
##    <dbl> <dbl>      <dbl>           <dbl>
##  1     4     1     18979.            27.7
##  2     4     2     20030.            27.9
##  3     4     3     19340.            28.0
##  4     4     4     17999.            28.1
##  5     4     5     20292.            27.2
##  6     4     6     15015.            27.2
##  7     4     7     11279.            25.6
##  8     4     8     18684.            28.0
##  9     4     9     18923.            28.5
## 10     4    10     20068.            28.6
## # ... with 82 more rows
…
tempo <- f416 %>%
  filter(month == 4) %>%
  group_by(day_week, id_cashier) %>%
  summarise(promedio_cajero = mean(qty), litros_cajero = sum(qty)
  )

## `summarise()` regrouping output by 'day_week' (override with `.groups` argument)

gr <- ggplot(tempo, aes(id_cashier,day_week)) +
      geom_tile(aes(fill = litros_cajero)) + 
      scale_fill_gradient(low = "green", high = "red") +
      theme_classic()
print(tempo)

## # A tibble: 95 x 4
## # Groups:   day_week [7]
##    day_week id_cashier promedio_cajero litros_cajero
##    <ord>         <dbl>           <dbl>         <dbl>
##  1 domingo        1000            47.0          564.
##  2 domingo        1001            26.2         9176.
##  3 domingo        1003            23.5         3171.
##  4 domingo        1005            23.4         3330.
##  5 domingo        1006            26.1         2771.
##  6 domingo        1008            25.7         2901.
##  7 domingo        1009            23.9         2175.
##  8 domingo        1012            28.8         4180.
##  9 domingo        1014            24.3         1749.
## 10 domingo        1016            24.4          950.
## # ... with 85 more rows
…
## `summarise()` regrouping output by 'day' (override with `.groups` argument)

gr <- ggplot(tempo, aes(x=id_cashier, y=ratio)) +
  geom_bar(stat="identity", fill="#41b6c4") +
  geom_text(aes(label=ratio), vjust=-0.3, size=3, angle=0) +
  facet_wrap(~day) +
  labs(title="Promedio por Cajero \n Venta Diaria  Mes de Abril", 
       x="Cajero", y="% por Cajero") +
  theme_bw()
print(tempo)

## # A tibble: 315 x 5
## # Groups:   day [30]
##      day id_cashier litros_cajero litros_dia ratio
##    <dbl>      <dbl>         <dbl>      <dbl> <dbl>
##  1     1       1000          291.     18979.   1.5
##  2     1       1001         2441.     18979.  12.9
##  3     1       1006         2023.     18979.  10.7
##  4     1       1008         1849.     18979.   9.7
##  5     1       1009         1662.     18979.   8.8
##  6     1       1011          510.     18979.   2.7
##  7     1       1012         2950.     18979.  15.5
##  8     1       1014          531.     18979.   2.8
##  9     1       1016         2301.     18979.  12.1
## 10     1       1018         2216.     18979.  11.7
## # ... with 305 more rows
…
## `summarise()` regrouping output by 'month' (override with `.groups` argument)

gr <- ggplot(tempo, aes(x=id_cashier, y=ratio)) +
  geom_bar(stat="identity", fill="#41b6c4") +
  geom_text(aes(label=ratio), vjust=-0.3, size=3, angle=0) +
  facet_wrap(~month) +
  labs(title="Participacion en la Venta Mensual\n Por Cada Cajero", 
       x="Identificador Cajero", y="% de Participacion") +
  theme_bw()
print(tempo)

## # A tibble: 41 x 5
## # Groups:   month [3]
##    month id_cashier  total total_mes ratio
##    <dbl>      <dbl>  <dbl>     <dbl> <dbl>
##  1     4       1000 10215.   513067.   2  
##  2     4       1001 43432.   513067.   8.5
##  3     4       1003 42224.   513067.   8.2
##  4     4       1005 46330.   513067.   9  
##  5     4       1006 46255.   513067.   9  
##  6     4       1008 25303.   513067.   4.9
##  7     4       1009 41794.   513067.   8.1
##  8     4       1011 18916.   513067.   3.7
##  9     4       1012 47052.   513067.   9.2
## 10     4       1014 39505.   513067.   7.7
## # ... with 31 more rows
…
## `summarise()` regrouping output by 'month' (override with `.groups` argument)

gr <- ggplot(tempo, aes(x=day, y=ratio)) +
  geom_bar(stat="identity", fill="#41b6c4") +
  geom_text(aes(label=ratio), vjust=-0.3, size=3, angle=0) +
  facet_wrap(~month) +
  labs(title="Participacion en la Venta Mensual\n Por Dia del Mes", 
       x="Dia del Mes", y="% de Participacion") +
  theme_bw()
print(tempo)

## # A tibble: 91 x 5
## # Groups:   month [3]
##    month   day venta_dia total_mes ratio
##    <dbl> <dbl>     <dbl>     <dbl> <dbl>
##  1     4     1    18979.   513067.   3.7
##  2     4     2    20030.   513067.   3.9
##  3     4     3    19340.   513067.   3.8
##  4     4     4    17999.   513067.   3.5
##  5     4     5    20292.   513067.   4  
##  6     4     6    15015.   513067.   2.9
##  7     4     7    11279.   513067.   2.2
##  8     4     8    18684.   513067.   3.6
##  9     4     9    18923.   513067.   3.7
## 10     4    10    20068.   513067.   3.9
## # ... with 81 more rows
…
